…
``` r
names(sun_reference.mspct)
#> [1] "ASTM.E490.AM0"    "ASTM.G173.direct" "ASTM.G173.global" "Gueymard.AM0"    
#> [5] "WMO.Wehrli.AM0"
```

Summary calculations can be easily done with methods from package
‘photobiology’. Here we calculate photon irradiance. As the spectra are
normalised we pass `allow.scaled = TRUE`,

``` r
q_irrad(sun_hourly_august.spct, scale.factor = 1e6) # umol m-2 s-1
#> # A tibble: 31 × 2
#>    spct.idx            Q_Total
#>    <fct>                 <dbl>
#>  1 2014-08-21 03:30:00    98.9
#>  2 2014-08-21 04:30:00   169. 
#>  3 2014-08-21 05:30:00   564. 
#>  4 2014-08-21 06:30:00   780. 
#>  5 2014-08-21 07:30:00   534. 
#>  6 2014-08-21 08:30:00  1255. 
#>  7 2014-08-21 09:30:00  1889. 
#>  8 2014-08-21 10:30:00  1914. 
#>  9 2014-08-21 11:30:00  1482. 
#> 10 2014-08-21 12:30:00  1264. 
#> # ℹ 21 more rows
```
…
