User Guide
…
names(sun_reference.mspct)

## [1] "ASTM.E490.AM0"    "ASTM.G173.direct" "ASTM.G173.global" "Gueymard.AM0"    
## [5] "WMO.Wehrli.AM0"

We can use a character string as index to extract an individual
source_spct object.

sun_reference.mspct$Gueymard.AM0

## Object: source_spct [2,002 x 2]
## Wavelength range 280-4000 nm, step 0.5-5 nm 
## Time unit 1s
## 
## # A tibble: 2,002 × 2
##    w.length s.e.irrad
##       <dbl>     <dbl>
##  1     280      0.082
##  2     280.     0.099
##  3     281      0.15 
##  4     282.     0.212
##  5     282      0.267
##  6     282.     0.303
##  7     283      0.325
##  8     284.     0.323
##  9     284      0.299
## 10     284.     0.250
## # ℹ 1,992 more rows

sun_reference.mspct[["Gueymard.AM0"]]

## Object: source_spct [2,002 x 2]
## Wavelength range 280-4000 nm, step 0.5-5 nm 
## Time unit 1s
## 
## # A tibble: 2,002 × 2
##    w.length s.e.irrad
##       <dbl>     <dbl>
##  1     280      0.082
##  2     280.     0.099
##  3     281      0.15 
##  4     282.     0.212
##  5     282      0.267
##  6     282.     0.303
##  7     283      0.325
##  8     284.     0.323
##  9     284      0.299
## 10     284.     0.250
## # ℹ 1,992 more rows

Be aware that according to R’s rules, using single square brackets
will return a source_mspct object possibly of length one.
This statement is not equivalent to the one in the chunk immediately
above.

sun_reference.mspct["Gueymard.AM0"]

## Object: source_mspct [1 x 1]
## --- Member: Gueymard.AM0 ---
## Object: source_spct [2,002 x 2]
## Wavelength range 280-4000 nm, step 0.5-5 nm 
## Time unit 1s
## 
## # A tibble: 2,002 × 2
##    w.length s.e.irrad
##       <dbl>     <dbl>
##  1     280      0.082
##  2     280.     0.099
##  3     281      0.15 
##  4     282.     0.212
##  5     282      0.267
##  6     282.     0.303
##  7     283      0.325
##  8     284.     0.323
##  9     284      0.299
## 10     284.     0.250
## # ℹ 1,992 more rows
## 
## --- END ---
Accessing subsets of spectra

We can subset sensors.mspct object by indexing with
vectors of character strings. More generally one can search for matching
names within the collection of spectra.

sun_reference.mspct[grep("AM0", names(sun_reference.mspct), ignore.case = TRUE)]

## Object: source_mspct [3 x 1]
## --- Member: ASTM.E490.AM0 ---
## Object: source_spct [1,697 x 2]
## Wavelength range 119.5-1e+06 nm, step 1-6e+05 nm 
## Time unit 1s
## 
## # A tibble: 1,697 × 2
##    w.length s.e.irrad
##       <dbl>     <dbl>
##  1     120. 0.0000619
##  2     120. 0.000561 
##  3     122. 0.00490  
##  4     122. 0.00118  
##  5     124. 0.0000477
##  6     124. 0.0000343
##  7     126. 0.0000288
##  8     126. 0.0000352
##  9     128. 0.0000213
## 10     128. 0.0000173
## # ℹ 1,687 more rows
## --- Member: Gueymard.AM0 ---
## Object: source_spct [2,002 x 2]
## Wavelength range 280-4000 nm, step 0.5-5 nm 
## Time unit 1s
## 
## # A tibble: 2,002 × 2
##    w.length s.e.irrad
##       <dbl>     <dbl>
##  1     280      0.082
##  2     280.     0.099
##  3     281      0.15 
##  4     282.     0.212
##  5     282      0.267
##  6     282.     0.303
##  7     283      0.325
##  8     284.     0.323
##  9     284      0.299
## 10     284.     0.250
## # ℹ 1,992 more rows
## --- Member: WMO.Wehrli.AM0 ---
## Object: source_spct [920 x 2]
## Wavelength range 199.5-10075 nm, step 0.1-2290 nm 
## Time unit 1s
## 
## # A tibble: 920 × 2
##    w.length s.e.irrad
##       <dbl>     <dbl>
##  1     200.     0.005
##  2     200.     0.007
##  3     202.     0.007
##  4     202.     0.008
##  5     204.     0.009
##  6     204.     0.009
##  7     206.     0.01 
##  8     206.     0.01 
##  9     208.     0.011
## 10     208.     0.015
## # ℹ 910 more rows
## 
## --- END ---
…
